id,name,model_id:id,group_id:id,perm_read,perm_write,perm_create,perm_unlink
access_res_user_builditem,access_res_user_builditem,model_res_user_builditem,base.group_user,1,0,0,0
access_item_stat,access_item_stat,model_item_stat,base.group_user,1,0,0,0
access_item_template_stat,access_item_template_stat,model_item_template_stat,base.group_user,1,0,0,0
access_res_user_build,access_res_user_build,model_res_user_build,base.group_user,1,0,0,0
